{"http_interactions": [{"request": {"body": {"encoding": "utf-8", "string": ""}, "headers": {"User-Agent": ["python-requests/2.23.0"], "Accept-Encoding": ["gzip, deflate"], "Accept": ["*/*"], "Connection": ["keep-alive"], "X-Requested-With": ["XMLHttpRequest"], "PyKechain-Version": ["3.6.2"], "Authorization": ["Token <AUTH_TOKEN>"]}, "method": "GET", "uri": "<API_URL>/api/v3/scopes.json?name=Bike+Project&status=ACTIVE&fields=id%2Cname%2Cref%2Ctext%2Ccreated_at%2Cupdated_at%2Cstart_date%2Cdue_date%2Cstatus%2Ccategory%2Cprogress%2Cmembers%2Cteam%2Ctags%2Cscope_options%2Cteam_id_name%2Cworkflow_root_id"}, "response": {"body": {"encoding": null, "base64_string": "H4sIAAAAAAAAA61UXW/bIBT9KxavDRG2wV9P3ao+7GnRmu5hVWQR+zphsY0FeF1V5b/v4iRNo2h7qCZZCA5H9xwOF78SA3ZsnSXF0ytRNSnIuhZ1BVJSGQugPF0zmjeVoFkqeMgaLkXSkBnpZQfI/qx2ECyM/gmVQ9RA40sgSIc30MFvh+iRFYwW6sDpwIF1weJlB9VWqj6QfR0Mo90Gyk27Wwha1Sm0NiPWSTeiR/Lpbvnl+z0ilXSw0eYFsceH+2/lw93XxYQbwJ26lF4xYmFOQ0ajaMmygiUFz+ZZykUsfiB1HOr31IhRxmkULsOwiMOCIVWkeZZ5qpMbnxCROG+V9YfSDZ3QFbqr9AClHpzSPdJe9/7IsitVXR5S6se2nZEOujWYc9IxWrBgjkH6NDrZyw2Yc7o4U7aUlVO/cOnMCDMCnVTt296h6GnPA8caZ6QFWZ9ojWwt7GcHA/m1A8/9P/KT0pW+553k+ZW6X57VH3EVLGFK+6825O163rcfM3MRRnjhxo4DmEs7/3Kx1f7yrANzM6gupv4wt/gGps6eV7r70GVNYa2m7jeu9M166OnUN2qIPc2K6buZRpSoR3hHyzyNhdc0fJkbfPbYiWyeZywXUXwcMYRnbXZNq59Lo7Urpz8CC1mdJFiMi2pNeVZxmnGR0iRuBMuiRPKsIfvV/g9EQO/nTQQAAA==", "string": ""}, "headers": {"Server": ["nginx/1.16.1"], "Date": ["Wed, 29 Apr 2020 11:53:13 GMT"], "Content-Type": ["application/json"], "Transfer-Encoding": ["chunked"], "Connection": ["keep-alive"], "Vary": ["Accept-Encoding", "Accept, Accept-Language, Cookie"], "Allow": ["GET, POST, HEAD, OPTIONS"], "X-Frame-Options": ["SAMEORIGIN"], "Content-Language": ["en", "en"], "Strict-Transport-Security": ["max-age=10886400; includeSubDomains"], "X-Content-Type-Options": ["nosniff"], "X-XSS-Protection": ["1; mode=block"], "Ke-Chain": ["2"], "Content-Encoding": ["gzip"]}, "status": {"code": 200, "message": "OK"}, "url": "<API_URL>/api/v3/scopes.json?name=Bike+Project&status=ACTIVE&fields=id%2Cname%2Cref%2Ctext%2Ccreated_at%2Cupdated_at%2Cstart_date%2Cdue_date%2Cstatus%2Ccategory%2Cprogress%2Cmembers%2Cteam%2Ctags%2Cscope_options%2Cteam_id_name%2Cworkflow_root_id"}, "recorded_at": "2020-04-29T11:53:13"}, {"request": {"body": {"encoding": "utf-8", "string": ""}, "headers": {"User-Agent": ["python-requests/2.23.0"], "Accept-Encoding": ["gzip, deflate"], "Accept": ["*/*"], "Connection": ["keep-alive"], "X-Requested-With": ["XMLHttpRequest"], "PyKechain-Version": ["3.6.2"], "Authorization": ["Token <AUTH_TOKEN>"]}, "method": "GET", "uri": "<API_URL>/api/activities.json?limit=1"}, "response": {"body": {"encoding": null, "string": "{\"count\":1251,\"next\":\"<API_URL>/api/activities.json?limit=1&offset=1\",\"previous\":null,\"results\":[{\"id\":\"838a6ea3-46f7-404f-8eea-909ab1d2521d\",\"name\":\"WORKFLOW_ROOT\"}]}"}, "headers": {"Server": ["nginx/1.16.1"], "Date": ["Wed, 29 Apr 2020 11:53:13 GMT"], "Content-Type": ["application/json"], "Content-Length": ["188"], "Connection": ["keep-alive"], "Vary": ["Accept, Accept-Language, Cookie"], "Allow": ["GET, POST, HEAD, OPTIONS"], "X-Frame-Options": ["SAMEORIGIN"], "Content-Language": ["en", "en"], "Strict-Transport-Security": ["max-age=10886400; includeSubDomains"], "X-Content-Type-Options": ["nosniff"], "X-XSS-Protection": ["1; mode=block"], "Ke-Chain": ["2"]}, "status": {"code": 200, "message": "OK"}, "url": "<API_URL>/api/activities.json?limit=1"}, "recorded_at": "2020-04-29T11:53:14"}], "recorded_with": "betamax/0.8.1"}